@startuml

skinparam monochrome true
skinparam packageStyle rect
skinparam defaultFontName FG Virgil
skinparam shadowing false
skinparam linetype ortho

class Person {
- name : Name
- address Address
- birthPlace : Birthplace
- birthDate : Birthdate
- mother : Person
- father : Person
+ Person ()
}

class Group {
-description : Description
-creationDate : CreationDate
-accounts : Accounts
-members : Set<Person>
-managers : Set<Person>
+ addCategory (designation : String)
}

class Category {
+ Category ()
}

class Designation {
- designation : String
}

class Categories {
- addCategory (designation : String)
- hasCategory (newCategory : Category)
}


Person --right> Group : "belongs to *  "
Person --right> Group : "manages  *   "
Group --right>"   1 " Categories : "has"
Categories  --> "*" Category : groupsCategories
Category --left> "  1"  Designation : "    has"

@enduml