@startuml
skinparam defaultFontSize 16

skinparam sequence {
   ArrowColor blue
   LifeLineBorderColor blue
   ParticipantBorderColor blue
   ParticipantBackgroundColor transparent
   ParticipantFontSize 16
   ActorFontColor blue
   ActorFontSize 15
   ActorFontName blue }
hide footbox

title **US006 - As a user, I want to create an account for me, assign to it a name and description, so that later it can be used in my movements.**\n

autonumber "9-"

participant  ": CreateAccountForPersonRESTController" as controller
participant "selfLink : Link " as selfLink
participant "linkToPerson : Link " as personLink
participant "linkToAccounts : Link " as accountsLink
participant "responseDTO: \nCreateAccountForPersonResponseDTO" as responseDTO

group SD createAndAddLinks

controller -> selfLink *: create (linkTo : "/accounts/{accountID}" , rel : "self")
controller -> accountsLink *: create (linkTo : "/people/{personID}/accounts" , rel : "accounts")

controller -> responseDTO : add (selfLink)
controller -> responseDTO : add (linkToAccounts)

end

@enduml