@startuml

skinparam defaultFontSize 16

skinparam sequence {
   ArrowColor blue
   LifeLineBorderColor blue
   ParticipantBorderColor blue
   ParticipantBackgroundColor transparent
   ParticipantFontSize 16
   ActorFontColor blue
   ActorFontSize 15
   ActorFontName blue }
hide footbox
title US002.1 - As a user, I want to create a group, making myself the manager of the group - Sequence Diagram\n

autonumber

participant ":Test" as Test
participant "createGroupController\n:CreateGroupController" as Ctrl
participant "createGroupService\n:CreateGroupService" as service
participant "CreateGroupAssembler" as createGroupAssembler
participant "requestDTO\n:CreateGroupRequestDTO" as requestDTO
participant "personRepo\n:PersonRepository" as PersonRepo
participant "group:\nGroup" as Group
participant "ledger:\nLedger" as Ledger
participant "groupRepo\n:GroupRepository" as GroupRepo
participant "ledgerRepo\n:LedgerRepository" as LedgerRepo
participant "groupDTO\n:GroupDTO" as groupDTO


activate Test

Test -> service *: (personRepo, groupRepo, ledgerRepo)



==ACT==
Test -> Ctrl *: (createGroupService)

Test -> Ctrl : createGroup (createGroupService,\n "groupID", "description",\n "creationDate", "creatorID", \n"groupLedgerID")
activate Ctrl

Ctrl -> createGroupAssembler : mapToRequestDTO ("groupID", "description",\n "creationDate", "creatorID", "groupLedgerID")
activate createGroupAssembler
createGroupAssembler -> requestDTO *: ("groupID", "description",\n "creationDate", "creatorID",\n "groupLedgerID")
createGroupAssembler --> Ctrl : requestDTO
deactivate createGroupAssembler

Ctrl -> service : createGroup (requestDTO)

activate service

service -> requestDTO : "creatorID" = getCreatorID()
service -> "creatorID\n:PersonID" *: ("creatorID")

service -> PersonRepo : containsByID (creatorID)
activate PersonRepo
PersonRepo --> service : personExists
deactivate PersonRepo

opt personExists == true

service -> requestDTO : "groupID" = getGroupID()
service -> "groupID\n:GroupID" *: ("groupID")
service -> requestDTO : "description" = getDescription()
service -> "description\n:Description" *: ("description")
service -> requestDTO : "creationDate" = getCreationDate()
service -> "creationDate\n:CreationDate" *: ("creationDate")
service -> requestDTO : "groupLedgerID" = getGroupLedgerID()
service -> "groupLedgerID\n:LedgerID" *: ("groupLedgerID")

service-> Group* : (groupID, description, creationDate, creatorID, groupLedgerID)
service -> GroupRepo: add (group)
activate GroupRepo
GroupRepo --> service : groupAdded
deactivate GroupRepo

service -> Ledger *: (groupLedgerID)
service -> LedgerRepo: add (groupLedgerID)
activate LedgerRepo
LedgerRepo --> service : ledgerAdded
deactivate LedgerRepo

opt groupAdded && ledgerAdded == true
service -> createGroupAssembler : mapToDTO (group)
activate createGroupAssembler
createGroupAssembler -> groupDTO* : ()
createGroupAssembler --> service : groupDTO
deactivate createGroupAssembler
end
end

service --> Ctrl : groupDTO
deactivate service
Ctrl --> Test : groupDTO
deactivate Ctrl

==ASSERT==
Test -> Test : assertEquals (expected, groupDTO)

@enduml