@startuml

skinparam monochrome true
skinparam packageStyle rect
skinparam defaultFontName FG Virgil
skinparam shadowing false
skinparam linetype ortho
hide footbox

participant ":Test" as Test
participant ":CreateGroupController" as Controller
participant "person:Person" as Person
participant "groups :Groups" as Groups
participant ":Set<Group>" as SetGroup
participant "group:Group" as Group
participant ":Description" as GroupDes
participant ":CreationDate" as creationDate

Groups -> SetGroup* : ( )
==ACT ==
Test ->  Controller : createGroup \n(groups, description, \n creationDate, person)
activate Controller
Controller ->  Groups : addGroup(description,\n creationDate,person)
activate Groups
Groups -> Group *: (description,creationDate,person)
activate Group
Group -> GroupDes* : (description)
Group -> creationDate *:(creationDate)
Group -> "members\n:Set<Person>"* : add(person)
Group -> "managers\n:Set<Person>"* : add(person)
Group --> Groups
deactivate Group
SetGroup  --> SetGroup : add(group)
activate SetGroup
SetGroup --> Groups :
deactivate SetGroup
Groups --> Controller :  result
deactivate Groups
Controller --> Test :  result
deactivate Controller
==ASSERT==
Test -> Test : assertTrue(result)


@enduml