<?xml version="1.0" encoding="UTF-8"?>
<!DOCTYPE svg PUBLIC "-//W3C//DTD SVG 1.1//EN" "http://www.w3.org/Graphics/SVG/1.1/DTD/svg11.dtd">
<svg xmlns="http://www.w3.org/2000/svg" xmlns:xlink="http://www.w3.org/1999/xlink" version="1.1" width="811px" height="281px" viewBox="-0.5 -0.5 811 281"
     style="background-color: rgb(255, 255, 255);"><defs><clipPath id="mx-clip-64-54-92-56-0"><rect x="64" y="54" width="92" height="56"/></clipPath><clipPath id="mx-clip-54-187-112-56-0"><rect x="54" y="187" width="112" height="56"/></clipPath><clipPath id="mx-clip-444-127-172-56-0"><rect x="444" y="127" width="172" height="56"/></clipPath><clipPath id="mx-clip-314-165-62-30-0"><rect x="314" y="165" width="62" height="30"/></clipPath><clipPath id="mx-clip-680-35-112-34-0"><rect x="680" y="35" width="112" height="34"/></clipPath></defs><g><rect x="0" y="0" width="810" height="280" fill="#ffffff" stroke="none" pointer-events="all"/><rect x="20" y="37" width="180" height="90" fill="#dae8fc" stroke="#6c8ebf" pointer-events="all"/><path d="M 177 44 L 193 44 L 193 64 L 177 64 L 177 60 L 173 60 L 173 56 L 177 56 L 177 52 L 173 52 L 173 48 L 177 48 Z" fill="#ffffff" stroke="#000000" stroke-miterlimit="10" pointer-events="all"/><path d="M 177 48 L 181 48 L 181 52 L 177 52 M 177 56 L 181 56 L 181 60 L 177 60" fill="none" stroke="#000000" stroke-miterlimit="10" pointer-events="all"/><rect x="60" y="54" width="100" height="56" fill="none" stroke="none" pointer-events="all"/><g fill="#000000" font-family="Helvetica" font-weight="bold" clip-path="url(#mx-clip-64-54-92-56-0)" text-anchor="middle" font-size="12px"><text x="109.5" y="72.5">&lt;&lt;component&gt;&gt;</text><text x="109.5" y="86.5">HTTP Client</text><text x="109.5" y="100.5">(Postman)</text></g><rect x="20" y="170" width="180" height="90" fill="#dae8fc" stroke="#6c8ebf" pointer-events="all"/><path d="M 177 177 L 193 177 L 193 197 L 177 197 L 177 193 L 173 193 L 173 189 L 177 189 L 177 185 L 173 185 L 173 181 L 177 181 Z" fill="#ffffff" stroke="#000000" stroke-miterlimit="10" pointer-events="all"/><path d="M 177 181 L 181 181 L 181 185 L 177 185 M 177 189 L 181 189 L 181 193 L 177 193" fill="none" stroke="#000000" stroke-miterlimit="10" pointer-events="all"/><rect x="50" y="187" width="120" height="56" fill="none" stroke="none" pointer-events="all"/><g fill="#000000" font-family="Helvetica" font-weight="bold" clip-path="url(#mx-clip-54-187-112-56-0)" text-anchor="middle" font-size="12px"><text x="109.5" y="212.5">&lt;&lt;component&gt;&gt;</text><text x="109.5" y="226.5">Teste de Integração</text></g><rect x="420" y="110" width="220" height="90" fill="#dae8fc" stroke="#6c8ebf" pointer-events="all"/><path d="M 617 117 L 633 117 L 633 137 L 617 137 L 617 133 L 613 133 L 613 129 L 617 129 L 617 125 L 613 125 L 613 121 L 617 121 Z" fill="#ffffff" stroke="#000000" stroke-miterlimit="10" pointer-events="all"/><path d="M 617 121 L 621 121 L 621 125 L 617 125 M 617 129 L 621 129 L 621 133 L 617 133" fill="none" stroke="#000000" stroke-miterlimit="10" pointer-events="all"/><rect x="440" y="127" width="180" height="56" fill="none" stroke="none" pointer-events="all"/><g fill="#000000" font-family="Helvetica" font-weight="bold" clip-path="url(#mx-clip-444-127-172-56-0)" text-anchor="middle" font-size="12px"><text x="529.5" y="152.5">&lt;&lt;component&gt;&gt;</text><text x="529.5" y="166.5">Gestão de Finanças Pessoais</text></g><path d="M 420 155 L 349.88 156.24" fill="none" stroke="#000000" stroke-miterlimit="10" pointer-events="stroke"/><path d="M 200 82 L 333.38 149.17" fill="none" stroke="#000000" stroke-miterlimit="10" pointer-events="stroke"/><path d="M 336.93 159.91 Q 329.78 156.31 333.38 149.17 Q 336.98 142.02 344.13 145.62" fill="none" stroke="#000000" stroke-miterlimit="10" pointer-events="all"/><ellipse cx="345" cy="155" rx="5" ry="5" fill="#ffffff" stroke="#000000" pointer-events="all"/><path d="M 200 215 L 332.99 159.98" fill="none" stroke="#000000" stroke-miterlimit="10" pointer-events="stroke"/><path d="M 343.44 164.32 Q 336.05 167.37 332.99 159.98 Q 329.93 152.59 337.33 149.53" fill="none" stroke="#000000" stroke-miterlimit="10" pointer-events="all"/><rect x="310" y="165" width="70" height="30" fill="none" stroke="none" pointer-events="all"/><g fill="#000000" font-family="Helvetica" font-weight="bold" clip-path="url(#mx-clip-314-165-62-30-0)" text-anchor="middle" font-size="12px"><text x="344.5" y="184.5">REST API</text></g><path d="M 695.63 20 L 795.63 20 L 795.63 80 L 675.63 80 L 675.63 40 Z" fill="#eeeeee" stroke="#36393d" stroke-miterlimit="10" pointer-events="all"/><rect x="675.63" y="35" width="120" height="34" fill="none" stroke="none" pointer-events="all"/><g fill="#000000" font-family="Helvetica" font-weight="bold" clip-path="url(#mx-clip-680-35-112-34-0)" text-anchor="middle" font-size="12px"><text x="735.13" y="49.5">Logic view, </text><text x="735.13" y="63.5">Level 2</text></g></g></svg>